{
	"label": "Wicked One Impulses",
	"mapping": {
        "description": "system.description"
    },	
	"entries": {
		"Bigmouth": {
			"name": "多嘴",
			"description":"你無法控制自己的嘴，無論是令人厭惡的粗魯、可怕的吹牛、不停地說謊，還是忍不住說出真相。你喜歡別人聽你說話，不管是否傷害了你、對方或盟友。"
		},
		"Cruel": {
			"name": "殘忍",
			"description":"你享受他人的痛苦和不幸，不遺餘力地讓對方體驗痛苦。僅僅殺戮是不夠的，這只是殘忍的結束。但看著重要之人死去的傢伙的表情？令人愉悅。他人的痛苦讓你證明了自己的存在價值。"
		},
		"Deranged": {
			"name": "狂亂",
			"description":"你在最怪異、最令人不安的事情中找到樂趣。你不在乎，或沒有意識到你如何影響周圍的人。你幾乎是完全不可預測的，有嘗試不尋常事情的傾向，只是為了看看會發生什麼。你可能會聽到一些聲音，促使你採取這些行動，也可能只是極端的好奇心。"
		},
		"Fickle": {
			"name": "善變",
			"description":"你很容易分心，無法保持工作狀態。一旦有什麼東西吸引了你的注意力，你就會情不自禁地去看它。你可能在計劃進行到一半時改變主意，甚至在邁出第一步之前改變主意。你對他人的態度和你的行動一樣。"
		},
		"Obsessed": {
			"name": "痴迷",
			"description":"你很容易固執己見。一旦腦海中有了想法，你就不會讓它消失。可能有些物體或概念已經讓你注意了相當長的時間，或者這可能表現為對痴迷的偏愛。無論哪種方式，一旦它在你的腦海裡，你就不能忽視它。"
		},
		"Paranoid": {
			"name": "偏執",
			"description":"你總是覺得自己的生命、財物或目標受到威脅。從來沒有安全感，並總是擔心最遭的事情。你相信有什麼東西或人要來抓你。你的偏執可能是種普遍態度，也可能是針對某些具體的東西。你可能會對一些看似平凡的事物產生非理性的恐懼，或者對某些危險的事物產生難以置信的厭惡。"
		},
		"Reckless": {
			"name": "魯莽",
			"description":"對你來說後果永遠是最不重要的。你急躁、草率、目光短淺。以最快的速度達到目標，不管有什麼阻礙。你不僅不關心自己的安全，也不關心你周圍人的安全。"
		},
		"Vengeful": {
			"name": "仇恨",
			"description":"你永遠不會忘記那些曾經傷害過你的人，不會讓任何輕視行為不受懲罰。無論傷害是真實的還是只是感覺到的，都不重要，你知道他們有責任，必須付出代價。你復仇的嚴重程度可能從小事到極端都有。"
		}
	}
}
